{
  "1036786543056510": "44.418360,12.203529", 
  "1036224399779391": "44.487616,12.277403", 
  "1036600099741821": "44.417607,12.198795", 
  "1036793566389141": "44.418690,12.198714", 
  "1036210496447448": "44.414150,12.205447"
}