{
  "610801182321717": "44.419924,12.219063", 
  "610802745654894": "44.416427,12.197577", 
  "610898175645351": "44.419924,12.219063", 
  "610876595647509": "44.405146,12.187360", 
  "610815982320237": "44.434122,12.241791", 
  "610810962320739": "44.415914,12.196331", 
  "610853298983172": "44.414783,12.193475"
}