{
  "985357398199425": {
    "width": 720, 
    "image_url": "https://scontent.xx.fbcdn.net/t31.0-8/q84/s720x720/12716426_985357398199425_4861393112604236766_o.jpg", 
    "title": "Sant'Apollinare in Classe.", 
    "date": " Primi anni del '900", 
    "text": "", 
    "folder": "Sant'Apollinare in Classe", 
    "thumb_url": "http://192.168.178.80/thumb/985357398199425.jpg", 
    "height": 442
  }, 
  "763671777034656": {
    "width": 720, 
    "image_url": "https://scontent.xx.fbcdn.net/v/t1.0-9/s720x720/1912414_763671777034656_4483490350415066430_n.jpg?oh=70207e0c6d238a49a0991e6eb3f67e81&oe=57D37BEF", 
    "title": "Sant'Apollinare in Classe.", 
    "date": " Primi anni del '900", 
    "text": "", 
    "folder": "Sant'Apollinare in Classe", 
    "thumb_url": "http://192.168.178.80/thumb/763671777034656.jpg", 
    "height": 502
  }, 
  "662228190512349": {
    "width": 578, 
    "image_url": "https://scontent.xx.fbcdn.net/v/t1.0-9/1511107_662228190512349_3530487669800431643_n.jpg?oh=2985951fd0a2a7c078ec559c95af7a9a&oe=57C3C5FD", 
    "title": "Sant'Apollinare in Classe", 
    "date": " Primi anni del '900", 
    "text": "", 
    "folder": "Sant'Apollinare in Classe", 
    "thumb_url": "http://192.168.178.80/thumb/662228190512349.jpg", 
    "height": 438
  }, 
  "996930790375419": {
    "width": 720, 
    "image_url": "https://scontent.xx.fbcdn.net/v/t1.0-9/s720x720/993551_996930790375419_5983282801453040364_n.jpg?oh=545971713198768a886c8b2d0388df42&oe=57DB4E61", 
    "title": "La Basilica di Sant'Apollinare in Classe.", 
    "date": " 1907", 
    "text": "", 
    "folder": "La Basilica di Sant'Apollinare in Classe", 
    "thumb_url": "http://192.168.178.80/thumb/996930790375419.jpg", 
    "height": 418
  }, 
  "643653129036522": {
    "width": 720, 
    "image_url": "https://scontent.xx.fbcdn.net/v/t1.0-9/q84/s720x720/1947428_643653129036522_343221680_n.jpg?oh=5cf2cf3eedfdc2b0c9c90701d1ed22d2&oe=57E638ED", 
    "title": "Basilica di Sant'Apollinare in Classe durante il quarto Circuito del Savio", 
    "date": " 16 Maggio 1926", 
    "text": "", 
    "folder": "Basilica di Sant'Apollinare in Classe durante il quarto Circuito del Savio", 
    "thumb_url": "http://192.168.178.80/thumb/643653129036522.jpg", 
    "height": 553
  }, 
  "848332115235288": {
    "width": 720, 
    "image_url": "https://scontent.xx.fbcdn.net/v/t1.0-0/p180x540/11188302_848332115235288_4391832049235086454_n.jpg?oh=2c21f2db58be670b53491e19aaf94cc6&oe=57DA7BF6", 
    "title": "Tribune e partenza del Circuito del Savio davanti a Sant'Apollinare in Classe.", 
    "date": " 1927", 
    "text": "", 
    "folder": "Tribune e partenza del Circuito del Savio davanti a Sant'Apollinare in Classe", 
    "thumb_url": "http://192.168.178.80/thumb/848332115235288.jpg", 
    "height": 540
  }, 
  "978149388920226": {
    "width": 720, 
    "image_url": "https://scontent.xx.fbcdn.net/t31.0-8/s720x720/12615306_978149388920226_8614737646264989102_o.jpg", 
    "title": "La Basilica di Sant'Apollinare in Classe.", 
    "date": " Anni '50", 
    "text": "", 
    "folder": "La Basilica di Sant'Apollinare in Classe", 
    "thumb_url": "http://192.168.178.80/thumb/978149388920226.jpg", 
    "height": 502
  }, 
  "1049912945077203": {
    "width": 433, 
    "image_url": "https://scontent.xx.fbcdn.net/v/t1.0-9/13226662_1049912945077203_8799885186865833355_n.jpg?oh=cab6e7c893ca0f0c6b4e415e27116765&oe=57C50596", 
    "title": "Il Torpedone della compagnia di trasporti SITA davanti a Sant'Apollinare in Classe.", 
    "date": " 1955", 
    "text": "", 
    "folder": "Il Torpedone della compagnia di trasporti SITA davanti a Sant'Apollinare in Classe", 
    "thumb_url": "http://192.168.178.80/thumb/1049912945077203.jpg", 
    "height": 309
  }
}