{
  "982049495196882": {
    "width": 448, 
    "image_url": "https://scontent.xx.fbcdn.net/v/t1.0-9/12718354_982049495196882_597551014220582539_n.jpg?oh=1966627e8a1c82649cfa943add02763c&oe=57CB14D0", 
    "title": "Il Palazzo della Provincia e Piazza San Francesco.", 
    "date": " Anni '20", 
    "text": "", 
    "folder": "Il Palazzo della Provincia e Piazza San Francesco", 
    "thumb_url": "http://192.168.178.80/thumb/982049495196882.jpg", 
    "height": 302
  }, 
  "676823899052778": {
    "width": 720, 
    "image_url": "https://scontent.xx.fbcdn.net/v/t1.0-9/s720x720/10407276_676823899052778_5288118097541838246_n.jpg?oh=256fb150d2b416a618fe6b82382d8170&oe=57D39336", 
    "title": "Palazzo della Provincia", 
    "date": " Anni '30", 
    "text": "", 
    "folder": "Palazzo della Provincia", 
    "thumb_url": "http://192.168.178.80/thumb/676823899052778.jpg", 
    "height": 487
  }, 
  "939612286107270": {
    "width": 500, 
    "image_url": "https://scontent.xx.fbcdn.net/v/t1.0-9/11222062_939612286107270_7737522821188059400_n.jpg?oh=6f7b90d9e35e3c0a9a12dab75c108802&oe=57D92FEE", 
    "title": "Il Palazzo della Provincia e Piazza San Francesco con la statua di Garibaldi.", 
    "date": " 1931", 
    "text": "", 
    "folder": "Il Palazzo della Provincia e Piazza San Francesco con la statua di Garibaldi", 
    "thumb_url": "http://192.168.178.80/thumb/939612286107270.jpg", 
    "height": 339
  }, 
  "827649653970201": {
    "width": 285, 
    "image_url": "https://scontent.xx.fbcdn.net/v/t1.0-9/11074593_827649653970201_2147845718443906215_n.jpg?oh=fc4c801bb949a940d4ad80b8d1d3cd6c&oe=57CB618B", 
    "title": "Il Palazzo della Provincia da Via Corrado Ricci.", 
    "date": " 1935", 
    "text": "", 
    "folder": "Il Palazzo della Provincia da Via Corrado Ricci", 
    "thumb_url": "http://192.168.178.80/thumb/827649653970201.jpg", 
    "height": 465
  }, 
  "977162142352284": {
    "width": 720, 
    "image_url": "https://scontent.xx.fbcdn.net/t31.0-8/s720x720/12615703_977162142352284_6167156393299260948_o.jpg", 
    "title": "Il Palazzo della Provincia.", 
    "date": " Anni '40", 
    "text": "", 
    "folder": "Il Palazzo della Provincia", 
    "thumb_url": "http://192.168.178.80/thumb/977162142352284.jpg", 
    "height": 460
  }
}