{
  "798735483528285": {
    "width": 720, 
    "image_url": "https://scontent.xx.fbcdn.net/v/t1.0-0/q86/p180x540/10906427_798735483528285_224190988627315696_n.jpg?oh=861417f3502d52d6e651b44315e0abc3&oe=5806FA86", 
    "title": "La settecentesca Chiusa di San Marco. Si ringrazia Roberto Stanghellini per la foto", 
    "date": " Fine '800", 
    "text": "", 
    "folder": "La settecentesca Chiusa di San Marco", 
    "thumb_url": "http://192.168.178.80/thumb/798735483528285.jpg", 
    "height": 540
  }
}