{
  "891748100893689": {
    "width": 570, 
    "image_url": "https://scontent.xx.fbcdn.net/v/t1.0-9/s720x720/11796361_891748100893689_6779897279804455088_n.jpg?oh=c1e8ca619e33a5b0d2b53b7d5bb63f79&oe=57D09704", 
    "title": "Buon Sant'Apollinare a tutti i ravennati ", 
    "date": "", 
    "text": "", 
    "folder": "Buon Sant'Apollinare a tutti i ravennati", 
    "thumb_url": "http://192.168.178.80/thumb/891748100893689.jpg", 
    "height": 720
  }
}