{
  "762921227109711": {
    "width": 500, 
    "image_url": "https://scontent.xx.fbcdn.net/v/t1.0-9/10378151_762921227109711_3910119331793959096_n.jpg?oh=f260d91d9fcbd3079d1f85c769bbbb51&oe=57CFC44D", 
    "title": "Via De Gasperi ", 
    "date": " Anni '60", 
    "text": "", 
    "folder": "Via De Gasperi", 
    "thumb_url": "http://192.168.178.80/thumb/762921227109711.jpg", 
    "height": 350
  }, 
  "671984872870014": {
    "width": 483, 
    "image_url": "https://scontent.xx.fbcdn.net/v/t1.0-9/1010712_671984872870014_8130585732659527304_n.jpg?oh=25d2bcaa177e62ca2c312c568b087a78&oe=57DBEAC9", 
    "title": "Via De Gasperi ", 
    "date": " Anni '60", 
    "text": "", 
    "folder": "Via De Gasperi", 
    "thumb_url": "http://192.168.178.80/thumb/671984872870014.jpg", 
    "height": 328
  }, 
  "846956495372850": {
    "width": 492, 
    "image_url": "https://scontent.xx.fbcdn.net/v/t1.0-9/s720x720/11143730_846956495372850_6488837767709022726_n.jpg?oh=db7dbf1a8abaa682c400522c152915a0&oe=57C1B543", 
    "title": "Via De Gasperi. ", 
    "date": " Anni '70", 
    "text": "", 
    "folder": "Via De Gasperi", 
    "thumb_url": "http://192.168.178.80/thumb/846956495372850.jpg", 
    "height": 720
  }
}