{
  "808225112579322": {
    "width": 720, 
    "image_url": "https://scontent.xx.fbcdn.net/v/t1.0-0/p180x540/10978599_808225112579322_3492702382744965267_n.jpg?oh=74a81b9f7e5377fffae01e6dba005c9e&oe=57D5005C", 
    "title": "Trebbiatura nella zona delle Bassette. Si ringrazia Roberto Stanghellini per la foto", 
    "date": " 1938", 
    "text": "", 
    "folder": "Trebbiatura nella zona delle Bassette", 
    "thumb_url": "http://192.168.178.80/thumb/808225112579322.jpg", 
    "height": 540
  }
}