{
  "862468820488284": {
    "width": 540, 
    "image_url": "https://scontent.xx.fbcdn.net/v/t1.0-9/s720x720/11221906_862468820488284_5309834314663006753_n.jpg?oh=beb5388ea3f3274c53e87380524106ea&oe=57C54C46", 
    "title": "Via Mazzini. Come si chiamava allora il tratto sul quale fu aperta Piazza dei Caduti, dove era anche situato il Grand Hotel Byron. Si ringrazia Roberto Stanghellini per la foto", 
    "date": " Fine '800", 
    "text": "", 
    "folder": "Via Mazzini Come si chiamava allora il tratto sul quale fu aperta Piazza dei Caduti, dove era anche situato il Grand Hotel Byron", 
    "thumb_url": "http://192.168.178.80/thumb/862468820488284.jpg", 
    "height": 720
  }
}