{
  "621777857890716": {
    "width": 720, 
    "image_url": "https://scontent.xx.fbcdn.net/v/t1.0-0/q82/p180x540/1497191_621777857890716_1578577509_n.jpg?oh=d3585d5045b373f88f06d366e49ebc16&oe=57D823C7", 
    "title": "Via Belle Arti, all'incrocio con l'attuale via Guidone. Edificio abbattuto per creare l'attuale Piazza dei Caduti ", 
    "date": " 1925", 
    "text": "", 
    "folder": "Via Belle Arti, all'incrocio con l'attuale via Guidone Edificio abbattuto per creare l'attuale Piazza dei Caduti", 
    "thumb_url": "http://192.168.178.80/thumb/621777857890716.jpg", 
    "height": 540
  }, 
  "816330828435417": {
    "width": 720, 
    "image_url": "https://scontent.xx.fbcdn.net/v/t1.0-0/p180x540/10930189_816330828435417_2422756907041750021_n.jpg?oh=c5c282e92ca3f688f4fbbe868f9fade4&oe=57C64E84", 
    "title": "Via Guidone. Si ringrazia Roberto Stanghellini per la foto", 
    "date": " Anni '30", 
    "text": "", 
    "folder": "Via Guidone", 
    "thumb_url": "http://192.168.178.80/thumb/816330828435417.jpg", 
    "height": 540
  }, 
  "758232804245220": {
    "width": 492, 
    "image_url": "https://scontent.xx.fbcdn.net/v/t1.0-9/s720x720/10301418_758232804245220_4151371335203690247_n.jpg?oh=0f8c8d0a210b522bedc872fc7af995f7&oe=580C7415", 
    "title": "La torre Littoria in costruzione in Via Guidone. ", 
    "date": " 1937", 
    "text": "", 
    "folder": "La torre Littoria in costruzione in Via Guidone", 
    "thumb_url": "http://192.168.178.80/thumb/758232804245220.jpg", 
    "height": 720
  }, 
  "965836100151555": {
    "width": 501, 
    "image_url": "https://scontent.xx.fbcdn.net/v/t1.0-9/s720x720/10157292_965836100151555_160979029945427024_n.jpg?oh=4a25cd9950ac87f9b7b7a9d200238d6d&oe=580ECEEE", 
    "title": "L' Albergo Unione in Via Guidone. ", 
    "date": " Anni '70", 
    "text": "", 
    "folder": "L' Albergo Unione in Via Guidone", 
    "thumb_url": "http://192.168.178.80/thumb/965836100151555.jpg", 
    "height": 720
  }, 
  "803622689706231": {
    "width": 716, 
    "image_url": "https://scontent.xx.fbcdn.net/v/t1.0-9/10858620_803622689706231_7455776040891161351_n.jpg?oh=7cd26a5221f97fb10afe37888550899e&oe=57DBDB73", 
    "title": "L'albergo Unione in Via Guidone. ", 
    "date": " Anni '70", 
    "text": "", 
    "folder": "L'albergo Unione in Via Guidone", 
    "thumb_url": "http://192.168.178.80/thumb/803622689706231.jpg", 
    "height": 528
  }, 
  "834136786654821": {
    "width": 540, 
    "image_url": "https://scontent.xx.fbcdn.net/v/t1.0-9/q84/s720x720/11081278_834136786654821_3445998352466491669_n.jpg?oh=82b0971ec21df34357acb68ec33002cf&oe=57C31E42", 
    "title": "Via Guidone (gi\u00e0 Via Omobono). In fondo alla via la Torre del Palazzo Baronio che si elevava in Via Romolo Gessi. Si ringrazia Roberto Stanghellini per la foto", 
    "date": " Fine '800", 
    "text": "", 
    "folder": "Via Guidone (gi\u00e0 Via Omobono) In fondo alla via la Torre del Palazzo Baronio che si elevava in Via Romolo Gessi", 
    "thumb_url": "http://192.168.178.80/thumb/834136786654821.jpg", 
    "height": 720
  }
}