{
  "1049893335079164": {
    "width": 720, 
    "image_url": "https://scontent.xx.fbcdn.net/v/t1.0-0/p180x540/13240046_1049893335079164_8112365613868555412_n.jpg?oh=9fcf36da296c1798cea4f1e04f85a5d9&oe=57D692A4", 
    "title": "La fontana dell'acqua pisciolina in Piazzale dei Mille a Marina di Ravenna. Si ringrazia Roberto Stanghellini per la foto", 
    "date": " Anni '50 ", 
    "text": "", 
    "folder": "La fontana dell'acqua pisciolina in Piazzale dei Mille a Marina di Ravenna", 
    "thumb_url": "http://192.168.178.80/thumb/1049893335079164.jpg", 
    "height": 540
  }, 
  "1036224399779391": {
    "width": 720, 
    "image_url": "https://scontent.xx.fbcdn.net/v/t1.0-0/p180x540/13043632_1036224399779391_8306102837033901698_n.jpg?oh=192349df452f3db4c7b5bef2240eb115&oe=57D56699", 
    "title": "L' albergo gelateria Stella Azzurra in Piazza dei Mille a Marina di Ravenna. Si ringrazia Roberto Stanghellini per la foto", 
    "date": " Anni '60", 
    "text": "", 
    "folder": "L' albergo gelateria Stella Azzurra in Piazza dei Mille a Marina di Ravenna", 
    "thumb_url": "http://192.168.178.80/thumb/1036224399779391.jpg", 
    "height": 540
  }, 
  "725444477524053": {
    "width": 714, 
    "image_url": "https://scontent.xx.fbcdn.net/v/t1.0-9/s720x720/1966699_725444477524053_4735734800230784037_n.jpg?oh=8180414fba08d1cf53181f8133a1d642&oe=57C80113", 
    "title": "Viale dei Mille a Marina di Ravenna ", 
    "date": " Anni '60", 
    "text": "", 
    "folder": "Viale dei Mille a Marina di Ravenna", 
    "thumb_url": "http://192.168.178.80/thumb/725444477524053.jpg", 
    "height": 720
  }, 
  "1032967800105051": {
    "width": 720, 
    "image_url": "https://scontent.xx.fbcdn.net/v/t1.0-9/s720x720/13087666_1032967800105051_7264609303537949076_n.jpg?oh=1356658d7d36abea53f781f0bcb64f7a&oe=57CC0DEB", 
    "title": "Piazzale dei Mille a Marina di Ravenna. ", 
    "date": " 1966", 
    "text": "", 
    "folder": "Piazzale dei Mille a Marina di Ravenna", 
    "thumb_url": "http://192.168.178.80/thumb/1032967800105051.jpg", 
    "height": 490
  }
}