{
  "626090637459438": {
    "width": 720, 
    "image_url": "https://scontent.xx.fbcdn.net/v/t1.0-9/s720x720/1514599_626090637459438_1451755281_n.jpg?oh=f9406e449aecd66242ed9701d0efff43&oe=580B37B6", 
    "title": "Foto aerea fatta da un idrivolante in volo del canale Corsini e la base aerea della Marina Militare americana U.S. Naval Aviation presso Marina di Ravenna/Porto Corsini ", 
    "date": " 1918", 
    "text": "", 
    "folder": "Foto aerea fatta da un idrivolante in volo del canale Corsini e la base aerea della Marina Militare americana US Naval Aviation presso Marina di Ravenna/Porto Corsini", 
    "thumb_url": "http://192.168.178.80/thumb/626090637459438.jpg", 
    "height": 482
  }, 
  "626081850793650": {
    "width": 720, 
    "image_url": "https://scontent.xx.fbcdn.net/v/t1.0-9/s720x720/12446_626081850793650_158280603_n.jpg?oh=5122586545d41743bbd1d4aff3826d28&oe=57C6EFB4", 
    "title": "Idrovolante presso la base U.S. Naval Aviation della Marina Militare Americana dislocata a Marina di Ravenna/Porto Corsini sul canale Corsini ", 
    "date": " 1918", 
    "text": "", 
    "folder": "Idrovolante presso la base US Naval Aviation della Marina Militare Americana dislocata a Marina di Ravenna/Porto Corsini sul canale Corsini", 
    "thumb_url": "http://192.168.178.80/thumb/626081850793650.jpg", 
    "height": 451
  }, 
  "626081260793709": {
    "width": 720, 
    "image_url": "https://scontent.xx.fbcdn.net/v/t1.0-9/s720x720/1922034_626081260793709_180036695_n.jpg?oh=6cbc9bfaf69ebc5c3760651b184289c7&oe=57D0B017", 
    "title": "Hangar della base degli idrovolanti della Marina Militare americana U.S. Naval Aviation dislocata a Marina di Ravenna/Porto Corsini sul canale Corsini ", 
    "date": " 1918", 
    "text": "", 
    "folder": "Hangar della base degli idrovolanti della Marina Militare americana US Naval Aviation dislocata a Marina di Ravenna/Porto Corsini sul canale Corsini", 
    "thumb_url": "http://192.168.178.80/thumb/626081260793709.jpg", 
    "height": 470
  }, 
  "991842037550961": {
    "width": 720, 
    "image_url": "https://scontent.xx.fbcdn.net/v/t1.0-9/s720x720/12745946_991842037550961_6819088564274316349_n.jpg?oh=c174ac4a3dfa1255c81f5ffc1dd94b31&oe=57C6AD36", 
    "title": "Marina di Ravenna e Porto Corsini. ", 
    "date": " Anni '70", 
    "text": "", 
    "folder": "Marina di Ravenna e Porto Corsini", 
    "thumb_url": "http://192.168.178.80/thumb/991842037550961.jpg", 
    "height": 487
  }
}