{
  "654603404608161": {
    "width": 720, 
    "image_url": "https://scontent.xx.fbcdn.net/v/t1.0-9/q84/s720x720/1661616_654603404608161_852748336656554068_n.jpg?oh=865a7215191717398e33647fddaf652d&oe=57D466A7", 
    "title": "Via Castel San Pietro nel Borgo San Rocco  ", 
    "date": " 1940", 
    "text": "", 
    "folder": "Via Castel San Pietro nel Borgo San Rocco ", 
    "thumb_url": "http://192.168.178.80/thumb/654603404608161.jpg", 
    "height": 537
  }, 
  "775752529159914": {
    "width": 700, 
    "image_url": "https://scontent.xx.fbcdn.net/v/t1.0-9/10857921_775752529159914_4820859284000744897_n.jpg?oh=cdae9479af525f742b13b5ace4f14d1e&oe=57D25A13", 
    "title": "Via Castel San Pietro nel Borgo San Rocco ", 
    "date": " 1954", 
    "text": "", 
    "folder": "Via Castel San Pietro nel Borgo San Rocco", 
    "thumb_url": "http://192.168.178.80/thumb/775752529159914.jpg", 
    "height": 508
  }, 
  "863502993718200": {
    "width": 720, 
    "image_url": "https://scontent.xx.fbcdn.net/v/t1.0-0/p180x540/11110247_863502993718200_4702733615646881113_n.jpg?oh=a6ae7f3c474795a59aa4e6a40c74842a&oe=57D6BA9C", 
    "title": "Via Castel San Pietro nel Borgo San Rocco. Tra la porta e il lavatoio vi era un ponte che attraversava il Canale Molino. Si ringrazia Roberto Stanghellini per la foto", 
    "date": " Fine '800 ", 
    "text": "", 
    "folder": "Via Castel San Pietro nel Borgo San Rocco Tra la porta e il lavatoio vi era un ponte che attraversava il Canale Molino", 
    "thumb_url": "http://192.168.178.80/thumb/863502993718200.jpg", 
    "height": 540
  }
}