{
  "623432821058553": {
    "width": 720, 
    "image_url": "https://scontent.xx.fbcdn.net/v/t1.0-0/p180x540/1891184_623432821058553_1398444183_n.jpg?oh=337f9c4bdb3661b5632feaf0f668e0e6&oe=580CA3FB", 
    "title": "In attesa dei girini che faranno tappa anche quest'anno, la foto del traguardo della tappa dell'edizione 2011 ", 
    "date": " 16/05/2011", 
    "text": "", 
    "folder": "In attesa dei girini che faranno tappa anche quest'anno, la foto del traguardo della tappa dell'edizione 2011", 
    "thumb_url": "http://192.168.178.80/thumb/623432821058553.jpg", 
    "height": 540
  }
}