{
  "1047717821963382": {
    "width": 720, 
    "image_url": "https://scontent.xx.fbcdn.net/v/t1.0-0/p180x540/13239024_1047717821963382_7446636690189729490_n.jpg?oh=714a5d375c86e2fdf8edde5d077300e4&oe=57C20AB4", 
    "title": "Chiesa sconsacrata  di San Girolamo in piazza del Duomo. Nel 1798 serv\u00ec da magazzino per il foraggio della cavalleria francese. Si ringrazia Roberto Stanghellini per la foto", 
    "date": " 1890", 
    "text": "", 
    "folder": "Chiesa sconsacrata  di San Girolamo in piazza del Duomo Nel 1798 serv\u00ec da magazzino per il foraggio della cavalleria francese", 
    "thumb_url": "http://192.168.178.80/thumb/1047717821963382.jpg", 
    "height": 540
  }, 
  "940700765998422": {
    "width": 496, 
    "image_url": "https://scontent.xx.fbcdn.net/v/t1.0-9/12243483_940700765998422_160489315270137920_n.jpg?oh=116174ed023be14d42f6debd009e5a51&oe=57D9612D", 
    "title": "Il Duomo. Si ringrazia Viviana Masotti per la foto", 
    "date": " Primi anni del '900 ", 
    "text": "", 
    "folder": "Il Duomo", 
    "thumb_url": "http://192.168.178.80/thumb/940700765998422.jpg", 
    "height": 372
  }, 
  "833114516757048": {
    "width": 480, 
    "image_url": "https://scontent.xx.fbcdn.net/v/t1.0-9/11083591_833114516757048_444139364481144409_n.jpg?oh=7e4d5431a5d27e115e1b9b339b584686&oe=57D4938D", 
    "title": "La Fiera di Maggio con le bancarelle sotto i portici del Duomo. Si ringrazia Roberto Stanghellini per la foto", 
    "date": " Primi anni del '900", 
    "text": "", 
    "folder": "La Fiera di Maggio con le bancarelle sotto i portici del Duomo", 
    "thumb_url": "http://192.168.178.80/thumb/833114516757048.jpg", 
    "height": 360
  }, 
  "828321213903045": {
    "width": 720, 
    "image_url": "https://scontent.xx.fbcdn.net/v/t1.0-0/p180x540/10451177_828321213903045_2791972036731167440_n.jpg?oh=d92940878180ac987e85924bbdc68e24&oe=57C3FEC3", 
    "title": "Lavori di ampliamento del Seminario in Piazza del Duomo. La chiesa che scomparve era dedicata a San Girolamo. ", 
    "date": " 1906", 
    "text": "", 
    "folder": "Lavori di ampliamento del Seminario in Piazza del Duomo La chiesa che scomparve era dedicata a San Girolamo", 
    "thumb_url": "http://192.168.178.80/thumb/828321213903045.jpg", 
    "height": 540
  }, 
  "737088553026312": {
    "width": 720, 
    "image_url": "https://scontent.xx.fbcdn.net/v/t1.0-9/q87/s720x720/10686966_737088553026312_6829673274773577617_n.jpg?oh=46e8bce4e3778b9ecff14db5220131f8&oe=58087371", 
    "title": "Piazza del Duomo con la Chiesa di San Girolamo demolita negli anni '20 ", 
    "date": " 1910", 
    "text": "", 
    "folder": "Piazza del Duomo con la Chiesa di San Girolamo demolita negli anni '20", 
    "thumb_url": "http://192.168.178.80/thumb/737088553026312.jpg", 
    "height": 564
  }, 
  "737599162975251": {
    "width": 720, 
    "image_url": "https://scontent.xx.fbcdn.net/v/t1.0-9/s720x720/1962766_737599162975251_3892501631100286176_n.jpg?oh=952dfca613d1d22ae8a56782689252e7&oe=57D06524", 
    "title": "Via Garattoni da Piazza del Duomo ", 
    "date": " 1942", 
    "text": "", 
    "folder": "Via Garattoni da Piazza del Duomo", 
    "thumb_url": "http://192.168.178.80/thumb/737599162975251.jpg", 
    "height": 505
  }, 
  "973651842703314": {
    "width": 720, 
    "image_url": "https://scontent.xx.fbcdn.net/t31.0-8/s720x720/12605461_973651842703314_1090364348327167245_o.jpg", 
    "title": "Piazza del Duomo. ", 
    "date": " Anni '70", 
    "text": "", 
    "folder": "Piazza del Duomo", 
    "thumb_url": "http://192.168.178.80/thumb/973651842703314.jpg", 
    "height": 495
  }, 
  "733152543419913": {
    "width": 480, 
    "image_url": "https://scontent.xx.fbcdn.net/v/t1.0-9/10610776_733152543419913_7359812876592638135_n.jpg?oh=b093233b43a431a47cf8e79b2309609e&oe=57CC3700", 
    "title": "Il Duomo prima dell'ultimo restauro ", 
    "date": " Anni '90", 
    "text": "", 
    "folder": "Il Duomo prima dell'ultimo restauro", 
    "thumb_url": "http://192.168.178.80/thumb/733152543419913.jpg", 
    "height": 312
  }, 
  "617976891604146": {
    "width": 720, 
    "image_url": "https://scontent.xx.fbcdn.net/v/t1.0-0/p180x540/1622610_617976891604146_1438301802_n.jpg?oh=cb94362a033a7ee3414291c9d03ccca3&oe=57DC64F8", 
    "title": "Piazza del Duomo Fonte : ?", 
    "date": " ?", 
    "text": "", 
    "folder": "Piazza del Duomo", 
    "thumb_url": "http://192.168.178.80/thumb/617976891604146.jpg", 
    "height": 540
  }, 
  "610810962320739": {
    "width": 720, 
    "image_url": "https://scontent.xx.fbcdn.net/v/t1.0-9/q82/s720x720/1009963_610810962320739_1896619717_n.jpg?oh=782855302c4915b30326b19bbb7cd715&oe=57D0DE2D", 
    "title": "Piazza del Duomo\r Fonte: Ravenna centro storico", 
    "date": " Primi del '900 ", 
    "text": "", 
    "folder": "Piazza del Duomo\r", 
    "thumb_url": "http://192.168.178.80/thumb/610810962320739.jpg", 
    "height": 381
  }
}