{
  "943309939070838": {
    "width": 720, 
    "image_url": "https://scontent.xx.fbcdn.net/v/t1.0-0/p180x540/12227046_943309939070838_5965294798458260628_n.jpg?oh=07085226e25b0595217decd597a14952&oe=57D9B22C", 
    "title": "Viale Thaon de Revel a Marina di Ravenna. Nella foto si vedono il faro e l'edificio che ospitava il ristorante Sole. Si ringrazia Roberto Stanghellini per la foto", 
    "date": " Anni '30", 
    "text": "", 
    "folder": "Viale Thaon de Revel a Marina di Ravenna Nella foto si vedono il faro e l'edificio che ospitava il ristorante Sole", 
    "thumb_url": "http://192.168.178.80/thumb/943309939070838.jpg", 
    "height": 540
  }
}