{
  "812987168769783": {
    "width": 540, 
    "image_url": "https://scontent.xx.fbcdn.net/v/t1.0-9/s720x720/10394463_812987168769783_4478874983821158509_n.jpg?oh=6adbb0af9b194360c64709aaa0596820&oe=57C66A99", 
    "title": "Casa Graziani in Via Ponte Marini, distrutta da un bombardamento nel 1944. Si ringrazia Roberto Stanghellini per la foto", 
    "date": " Primi anni del '900", 
    "text": "", 
    "folder": "Casa Graziani in Via Ponte Marini, distrutta da un bombardamento nel 1944", 
    "thumb_url": "http://192.168.178.80/thumb/812987168769783.jpg", 
    "height": 720
  }, 
  "762896557112178": {
    "width": 720, 
    "image_url": "https://scontent.xx.fbcdn.net/v/t1.0-9/s720x720/10169465_762896557112178_6326119618729732927_n.jpg?oh=d57f81f6533919fb54e3f06b3a3b1d9d&oe=57C45772", 
    "title": "Via Ponte Marino con i ruderi di Palazzo Guaccimanni. Al posto del Palazzo verr\u00e0 costruito il Mercato Coperto. ", 
    "date": " 1919", 
    "text": "", 
    "folder": "Via Ponte Marino con i ruderi di Palazzo Guaccimanni Al posto del Palazzo verr\u00e0 costruito il Mercato Coperto", 
    "thumb_url": "http://192.168.178.80/thumb/762896557112178.jpg", 
    "height": 552
  }, 
  "627411703993998": {
    "width": 720, 
    "image_url": "https://scontent.xx.fbcdn.net/v/t1.0-0/q82/p180x540/12455_627411703993998_1181949853_n.jpg?oh=60b13f705fd7f76955ff19e13e802411&oe=57C4FBE5", 
    "title": "Via Ponte Marino. Area demolita dove sorgeva il Palazzo dei Guaccimanni, dove nel 1920/22 sorger\u00e0 il Mercato. Coperto ", 
    "date": " 1919", 
    "text": "", 
    "folder": "Via Ponte Marino Area demolita dove sorgeva il Palazzo dei Guaccimanni, dove nel 1920/22 sorger\u00e0 il Mercato Coperto", 
    "thumb_url": "http://192.168.178.80/thumb/627411703993998.jpg", 
    "height": 540
  }, 
  "960909403977558": {
    "width": 720, 
    "image_url": "https://scontent.xx.fbcdn.net/v/t1.0-0/p180x540/922917_960909403977558_7721070535029874599_n.jpg?oh=823c32264bd0ec0e477d0823e8f4ce34&oe=57D5C697", 
    "title": "Via Ponte Marino, il Caff\u00e8 Sarti gi\u00e0 Caff\u00e8 dell'Argia nello stabile dell'albergo Pellegrino. Vi ebbe poi sede la ferramenta Gritti. Si ringrazia Roberto Stanghellini per la foto", 
    "date": " 1927", 
    "text": "", 
    "folder": "Via Ponte Marino, il Caff\u00e8 Sarti gi\u00e0 Caff\u00e8 dell'Argia nello stabile dell'albergo Pellegrino Vi ebbe poi sede la ferramenta Gritti", 
    "thumb_url": "http://192.168.178.80/thumb/960909403977558.jpg", 
    "height": 540
  }, 
  "722792464455921": {
    "width": 720, 
    "image_url": "https://scontent.xx.fbcdn.net/v/t1.0-9/q84/s720x720/10653841_722792464455921_6659520757666029152_n.jpg?oh=046c3bdd0605ae008d117b12c4e2f902&oe=57C9119E", 
    "title": "Via Ponte Marino ", 
    "date": " 1940", 
    "text": "", 
    "folder": "Via Ponte Marino", 
    "thumb_url": "http://192.168.178.80/thumb/722792464455921.jpg", 
    "height": 537
  }, 
  "1042046112530553": {
    "width": 540, 
    "image_url": "https://scontent.xx.fbcdn.net/v/t1.0-9/s720x720/13151474_1042046112530553_7378752160696830277_n.jpg?oh=58b0bb7234f3f383c93e1f291deec1bd&oe=57D04DC2", 
    "title": "Via Ponte Marino e il Mercato Coperto. Si ringrazia Roberto Stanghellini per la foto", 
    "date": " 1942", 
    "text": "", 
    "folder": "Via Ponte Marino e il Mercato Coperto", 
    "thumb_url": "http://192.168.178.80/thumb/1042046112530553.jpg", 
    "height": 720
  }
}