{
  "941297545938744": {
    "width": 720, 
    "image_url": "https://scontent.xx.fbcdn.net/v/t1.0-9/s720x720/12208702_941297545938744_5876620118140894284_n.jpg?oh=ee0627f2a7acd68fdfeca2adb3b5b934&oe=57CD7546", 
    "title": "L' appendice del Canale Candiano situata dove ora sorge Piazzale Aldo Moro. Da notare sulla banchina le garritte dei finanzieri. ", 
    "date": " Primi anni del '900", 
    "text": "", 
    "folder": "L' appendice del Canale Candiano situata dove ora sorge Piazzale Aldo Moro Da notare sulla banchina le garritte dei finanzieri", 
    "thumb_url": "http://192.168.178.80/thumb/941297545938744.jpg", 
    "height": 486
  }, 
  "894000380668461": {
    "width": 720, 
    "image_url": "https://scontent.xx.fbcdn.net/v/t1.0-0/p180x540/18325_894000380668461_3368535906171330429_n.jpg?oh=15af9aca33e9f5774fa5ee516dea17f9&oe=57CE91CA", 
    "title": "Il Canale Corsini e il vecchio Faro di Marina di Ravenna distrutto dai bombardamenti austriaci nel 1915. ", 
    "date": " Primi anni del '900", 
    "text": "", 
    "folder": "Il Canale Corsini e il vecchio Faro di Marina di Ravenna distrutto dai bombardamenti austriaci nel 1915", 
    "thumb_url": "http://192.168.178.80/thumb/894000380668461.jpg", 
    "height": 540
  }, 
  "836460319755801": {
    "width": 720, 
    "image_url": "https://scontent.xx.fbcdn.net/v/t1.0-0/q82/p180x540/11037477_836460319755801_1964233301509905807_n.jpg?oh=136d77f1f7d540c8f13dff60bec26428&oe=580EA936", 
    "title": "Il Canale Candiano nei pressi del cimitero. Si ringrazia Roberto Stanghellini per la foto", 
    "date": " Primi anni del '900 ", 
    "text": "", 
    "folder": "Il Canale Candiano nei pressi del cimitero", 
    "thumb_url": "http://192.168.178.80/thumb/836460319755801.jpg", 
    "height": 540
  }, 
  "961354880599677": {
    "width": 720, 
    "image_url": "https://scontent.xx.fbcdn.net/v/t1.0-9/q84/s720x720/10418324_961354880599677_1491039895843075145_n.jpg?oh=db5dd7dbfa05c44a0cf165387c0323e8&oe=57DB1816", 
    "title": "Idrovolanti austriaci attaccano Ravenna. Si ringrazia Claudio Giulianini per la foto", 
    "date": " 1916", 
    "text": "", 
    "folder": "Idrovolanti austriaci attaccano Ravenna", 
    "thumb_url": "http://192.168.178.80/thumb/961354880599677.jpg", 
    "height": 473
  }, 
  "802945206440646": {
    "width": 720, 
    "image_url": "https://scontent.xx.fbcdn.net/v/t1.0-0/p180x540/1479021_802945206440646_7752190802107354368_n.jpg?oh=3c08fca610611ad1c11016aa25b2f2e5&oe=57D9AF5C", 
    "title": "La strada d'Alaggio costruita all'inizio del '800 che costeggiava il Canale Corsini ora Canale Candiano. Si ringrazia Roberto Stanghellini per la foto", 
    "date": " 1918", 
    "text": "", 
    "folder": "La strada d'Alaggio costruita all'inizio del '800 che costeggiava il Canale Corsini ora Canale Candiano", 
    "thumb_url": "http://192.168.178.80/thumb/802945206440646.jpg", 
    "height": 540
  }, 
  "626079677460534": {
    "width": 720, 
    "image_url": "https://scontent.xx.fbcdn.net/v/t1.0-9/s720x720/1743748_626079677460534_523897029_n.jpg?oh=4e7998fee28ec56bd5e6247ff26ab556&oe=57DD2A0B", 
    "title": "visione aerea del Canake Corsini e della base degli idrovolanti della Marina Militare Americana U.S. Naval Aviation dove ore sorge la centrale Enel a Marina di Ravenna/Porto Corsini ", 
    "date": " 1918", 
    "text": "", 
    "folder": "visione aerea del Canake Corsini e della base degli idrovolanti della Marina Militare Americana US Naval Aviation dove ore sorge la centrale Enel a Marina di Ravenna/Porto Corsini", 
    "thumb_url": "http://192.168.178.80/thumb/626079677460534.jpg", 
    "height": 483
  }, 
  "938622146206284": {
    "width": 540, 
    "image_url": "https://scontent.xx.fbcdn.net/v/t1.0-9/s720x720/12191398_938622146206284_975890858292129578_n.jpg?oh=7847e9d3e3a081f6a7d4beeaabbabf8a&oe=57D279DF", 
    "title": "Batane sul Canale Candiano a Porto Corsini ora Marina di Ravenna. In lontananza si pu\u00f2 notare il chiosco del fritto di Aldo Sarti che sorgeva dove oggi vi \u00e8 il mercato del pesce. Si ringrazia Roberto Stanghellini per la foto", 
    "date": " 1920", 
    "text": "", 
    "folder": "Batane sul Canale Candiano a Porto Corsini ora Marina di Ravenna In lontananza si pu\u00f2 notare il chiosco del fritto di Aldo Sarti che sorgeva dove oggi vi \u00e8 il mercato del pesce", 
    "thumb_url": "http://192.168.178.80/thumb/938622146206284.jpg", 
    "height": 720
  }, 
  "757764490958718": {
    "width": 720, 
    "image_url": "https://scontent.xx.fbcdn.net/v/t1.0-9/s720x720/10703696_757764490958718_4412421917443339587_n.jpg?oh=187d10cb87ec276f0dd8658c8d099a43&oe=57C4FAFA", 
    "title": "La strada che costeggiava il Candiano e conduceva a Porto Corsini. \u00c8 possibile notare la ferrovia costruita dai prigionieri austriaci durante la Grande Guerra. ", 
    "date": " 1920", 
    "text": "", 
    "folder": "La strada che costeggiava il Candiano e conduceva a Porto Corsini \u00c8 possibile notare la ferrovia costruita dai prigionieri austriaci durante la Grande Guerra", 
    "thumb_url": "http://192.168.178.80/thumb/757764490958718.jpg", 
    "height": 428
  }, 
  "766157213452779": {
    "width": 600, 
    "image_url": "https://scontent.xx.fbcdn.net/v/t1.0-9/10409503_766157213452779_3952214668860894206_n.jpg?oh=1c53b108b7ee7129446460a860202da3&oe=57CD723B", 
    "title": "Il Candiano e il Vecchio Faro di Marina di Ravenna ", 
    "date": " Anni '30", 
    "text": "", 
    "folder": "Il Candiano e il Vecchio Faro di Marina di Ravenna", 
    "thumb_url": "http://192.168.178.80/thumb/766157213452779.jpg", 
    "height": 468
  }, 
  "764192540315913": {
    "width": 400, 
    "image_url": "https://scontent.xx.fbcdn.net/v/t1.0-9/10525612_764192540315913_8633499862454844774_n.jpg?oh=6072d861548fd1f61d569828b25da0ea&oe=57C49ADB", 
    "title": "Via D'Alaggio, la via che costeggiava il Candiano e portava fino a Porto Corsini, l'odierna Marina di Ravenna ", 
    "date": " Anni '40", 
    "text": "", 
    "folder": "Via D'Alaggio, la via che costeggiava il Candiano e portava fino a Porto Corsini, l'odierna Marina di Ravenna", 
    "thumb_url": "http://192.168.178.80/thumb/764192540315913.jpg", 
    "height": 276
  }, 
  "749796571755510": {
    "width": 720, 
    "image_url": "https://scontent.xx.fbcdn.net/v/t1.0-9/s720x720/10303737_749796571755510_4223263398928054119_n.jpg?oh=665967c002031ecdeeef90be4bde4466&oe=57CBD96F", 
    "title": "Appendice del Canale Candidano che sorgeva nell'attuale Piazzale Aldo Moro ", 
    "date": " Fine '800", 
    "text": "", 
    "folder": "Appendice del Canale Candidano che sorgeva nell'attuale Piazzale Aldo Moro", 
    "thumb_url": "http://192.168.178.80/thumb/749796571755510.jpg", 
    "height": 539
  }, 
  "612627882139047": {
    "width": 720, 
    "image_url": "https://scontent.xx.fbcdn.net/v/t1.0-9/s720x720/1618707_612627882139047_1043452881_n.jpg?oh=9dd79ad0980b177cdc168ae61d320a8a&oe=57DCF389", 
    "title": "Canale Corsini e stazione Fonte : La Darsena che vorrei", 
    "date": " Probabilmente fine '800 primi '900", 
    "text": "", 
    "folder": "Canale Corsini e stazione", 
    "thumb_url": "http://192.168.178.80/thumb/612627882139047.jpg", 
    "height": 484
  }, 
  "626512394083929": {
    "width": 720, 
    "image_url": "https://scontent.xx.fbcdn.net/v/t1.0-0/p180x540/1899881_626512394083929_1019883238_n.jpg?oh=a26b9288227e6838fcf2e816a07134b8&oe=57D863D8", 
    "title": "Veduta aerea zona industriale Marina di Ravenna Candiano-Baiona ", 
    "date": " Inizio 2000", 
    "text": "", 
    "folder": "Veduta aerea zona industriale Marina di Ravenna Candiano-Baiona", 
    "thumb_url": "http://192.168.178.80/thumb/626512394083929.jpg", 
    "height": 540
  }, 
  "1032070870194744": {
    "width": 720, 
    "image_url": "https://scontent.xx.fbcdn.net/v/t1.0-9/s720x720/13051706_1032070870194744_2123265114011916356_n.jpg?oh=4043e815a9ec1828b362184826d2d684&oe=5807590B", 
    "title": "L' Amerigo Vespucci e la centrale Teodora. ", 
    "date": " 2008", 
    "text": "", 
    "folder": "L' Amerigo Vespucci e la centrale Teodora", 
    "thumb_url": "http://192.168.178.80/thumb/1032070870194744.jpg", 
    "height": 479
  }, 
  "623571831044652": {
    "width": 682, 
    "image_url": "https://scontent.xx.fbcdn.net/v/t1.0-9/1898182_623571831044652_305499950_n.jpg?oh=005c5b7ad1ba34d9357f84369f567255&oe=57DA7284", 
    "title": "Ingresso nel canale candiano della nave scuola della M.M. Amerigo Vespucci ", 
    "date": " 2008", 
    "text": "", 
    "folder": "Ingresso nel canale candiano della nave scuola della MM Amerigo Vespucci", 
    "thumb_url": "http://192.168.178.80/thumb/623571831044652.jpg", 
    "height": 511
  }
}