{
  "722208281181006": {
    "width": 720, 
    "image_url": "https://scontent.xx.fbcdn.net/v/t1.0-9/q91/s720x720/10383945_722208281181006_8444956398841099171_n.jpg?oh=c63e17a46e8d8db633efe8e3beb88f4c&oe=580F7936", 
    "title": "Via Alfredo Oriani. A sinistra le mura dell'orto Fabbri e subito dopo la sede degli uffici, di fronte alla quale sorgevano le stalle per i cavalli da traino. ", 
    "date": " 1940", 
    "text": "", 
    "folder": "Via Alfredo Oriani A sinistra le mura dell'orto Fabbri e subito dopo la sede degli uffici, di fronte alla quale sorgevano le stalle per i cavalli da traino", 
    "thumb_url": "http://192.168.178.80/thumb/722208281181006.jpg", 
    "height": 537
  }
}