{
  "807205632681270": {
    "width": 540, 
    "image_url": "https://scontent.xx.fbcdn.net/v/t1.0-9/q88/s720x720/10897914_807205632681270_7244771664456259106_n.jpg?oh=c25f289879fc67cf63c0d66bb7f1d2c5&oe=57D2172A", 
    "title": "Sant'Antonio ai fossi in Via Oberdan. Si ringrazia Roberto Stanghellini per la foto", 
    "date": " Primi anni del '900", 
    "text": "", 
    "folder": "Sant'Antonio ai fossi in Via Oberdan", 
    "thumb_url": "http://192.168.178.80/thumb/807205632681270.jpg", 
    "height": 720
  }, 
  "744132255655275": {
    "width": 720, 
    "image_url": "https://scontent.xx.fbcdn.net/v/t1.0-9/q92/s720x720/10169370_744132255655275_4072647456598075200_n.jpg?oh=915b82550ada5d9081715cffcdba0d04&oe=57CEA5D1", 
    "title": "Via Oberdan ", 
    "date": " 1940", 
    "text": "", 
    "folder": "Via Oberdan", 
    "thumb_url": "http://192.168.178.80/thumb/744132255655275.jpg", 
    "height": 537
  }, 
  "653906401344528": {
    "width": 720, 
    "image_url": "https://scontent.xx.fbcdn.net/v/t1.0-9/q92/s720x720/10258203_653906401344528_2267567264755444474_n.jpg?oh=a786aec52a8f9e09b279a79753ceb356&oe=57D7769F", 
    "title": "Via Oberdan  ", 
    "date": " 1940", 
    "text": "", 
    "folder": "Via Oberdan ", 
    "thumb_url": "http://192.168.178.80/thumb/653906401344528.jpg", 
    "height": 537
  }
}