{
  "886335621434937": {
    "width": 720, 
    "image_url": "https://scontent.xx.fbcdn.net/v/t1.0-9/s720x720/11231746_886335621434937_4143665286876774472_n.jpg?oh=59cc3ff5c5c90d41ce8bcde83e1da371&oe=57CFDD86", 
    "title": "Il calzaturificio Bartolazzi e la volta (arco) Pierelli in Via Paolo Costa. Si ringrazia Roberto Stanghellini per la foto", 
    "date": " 1908", 
    "text": "", 
    "folder": "Il calzaturificio Bartolazzi e la volta (arco) Pierelli in Via Paolo Costa", 
    "thumb_url": "http://192.168.178.80/thumb/886335621434937.jpg", 
    "height": 595
  }, 
  "758607334207767": {
    "width": 720, 
    "image_url": "https://scontent.xx.fbcdn.net/v/t1.0-9/s720x720/10407390_758607334207767_6522605849605815793_n.jpg?oh=83fdfe33f6da506b95970ef8f6a8b02d&oe=57C32243", 
    "title": "Via Paolo Costa. \u00c8 possibile notare la Chiesa di Santo Spirito fortunatamente risparmiata dai bombardamenti alleati. ", 
    "date": " 1946", 
    "text": "", 
    "folder": "Via Paolo Costa \u00c8 possibile notare la Chiesa di Santo Spirito fortunatamente risparmiata dai bombardamenti alleati", 
    "thumb_url": "http://192.168.178.80/thumb/758607334207767.jpg", 
    "height": 471
  }
}