{
  "1002344566500708": {
    "width": 720, 
    "image_url": "https://scontent.xx.fbcdn.net/v/t1.0-9/s720x720/1910624_1002344566500708_2434043620917520344_n.jpg?oh=4f482acfb47a5e4b38843898a2aeea06&oe=57DF4BA4", 
    "title": "Porta Nuova.", 
    "date": " 1900", 
    "text": "", 
    "folder": "Porta Nuova", 
    "thumb_url": "http://192.168.178.80/thumb/1002344566500708.jpg", 
    "height": 460
  }, 
  "974966805905151": {
    "width": 603, 
    "image_url": "https://scontent.xx.fbcdn.net/v/t1.0-9/s720x720/12645188_974966805905151_5751246544595660388_n.jpg?oh=ab744d8544bcce4e3df4deff503dae85&oe=57C2F17C", 
    "title": "Porta Nuova e le rotaie del tramvai Ravenna - Forl\u00ec.", 
    "date": " Primi anni del '900", 
    "text": "", 
    "folder": "Porta Nuova e le rotaie del tramvai Ravenna - Forl\u00ec", 
    "thumb_url": "http://192.168.178.80/thumb/974966805905151.jpg", 
    "height": 720
  }, 
  "665842273484274": {
    "width": 720, 
    "image_url": "https://scontent.xx.fbcdn.net/v/t1.0-9/q85/s720x720/10320467_665842273484274_7536500909247990901_n.jpg?oh=3eb711978f492de919014201d6d0b624&oe=57DB1CAC", 
    "title": "Porta Nuova", 
    "date": " Primi anni del '900", 
    "text": "", 
    "folder": "Porta Nuova", 
    "thumb_url": "http://192.168.178.80/thumb/665842273484274.jpg", 
    "height": 537
  }, 
  "771149029620264": {
    "width": 720, 
    "image_url": "https://scontent.xx.fbcdn.net/v/t1.0-9/s720x720/10308589_771149029620264_4180976840879171716_n.jpg?oh=9d72711e189adf4632d6e092a39f84d6&oe=57D418CD", 
    "title": "Arco d'ingresso dell'esposizione Regionale Romagnola, situato in Viale Santi Baldini, vicino a Porta Nuova.", 
    "date": " 1904", 
    "text": "", 
    "folder": "Arco d'ingresso dell'esposizione Regionale Romagnola, situato in Viale Santi Baldini, vicino a Porta Nuova", 
    "thumb_url": "http://192.168.178.80/thumb/771149029620264.jpg", 
    "height": 634
  }, 
  "933849873350178": {
    "width": 561, 
    "image_url": "https://scontent.xx.fbcdn.net/v/t1.0-9/s720x720/12195836_933849873350178_570600686306630157_n.jpg?oh=523c1f41af4b10dbedb93d498de4d128&oe=57DC96C5", 
    "title": "Porta Nuova con il trenino della linea Meldola - Forl\u00ec - Ravenna.", 
    "date": " 1910", 
    "text": "", 
    "folder": "Porta Nuova con il trenino della linea Meldola - Forl\u00ec - Ravenna", 
    "thumb_url": "http://192.168.178.80/thumb/933849873350178.jpg", 
    "height": 720
  }, 
  "968346503233848": {
    "width": 540, 
    "image_url": "https://scontent.xx.fbcdn.net/v/t1.0-9/s720x720/12509253_968346503233848_8085230089631659049_n.jpg?oh=a272b26692ad9292ae17b890042b764c&oe=57D0C5A0", 
    "title": "Porta Nuova. Da notare i binari della tramvia che collegava Ravenna a Forl\u00ec.", 
    "date": " Anni '20", 
    "text": "", 
    "folder": "Porta Nuova Da notare i binari della tramvia che collegava Ravenna a Forl\u00ec", 
    "thumb_url": "http://192.168.178.80/thumb/968346503233848.jpg", 
    "height": 720
  }, 
  "836475196420980": {
    "width": 720, 
    "image_url": "https://scontent.xx.fbcdn.net/v/t1.0-9/s720x720/11069632_836475196420980_3976196749044074772_n.jpg?oh=0d53b26f1fabdbd51b76f94802bf4b76&oe=57C5CD24", 
    "title": "La caserma Garibaldi e Porta Nuova in Via di Roma.", 
    "date": " 1934", 
    "text": "", 
    "folder": "La caserma Garibaldi e Porta Nuova in Via di Roma", 
    "thumb_url": "http://192.168.178.80/thumb/836475196420980.jpg", 
    "height": 468
  }, 
  "960384040696761": {
    "width": 720, 
    "image_url": "https://scontent.xx.fbcdn.net/v/t1.0-0/p180x540/1005933_960384040696761_7307426955384734439_n.jpg?oh=ea517aeef72ea7744a2dc72d9d74276f&oe=580E53DB", 
    "title": "Soldati alleati davanti a Porta Nuova o Porta Pamphilia, detta anche Porta Gregoriana in onore di Papa Gregorio XIII.", 
    "date": " 1944", 
    "text": "", 
    "folder": "Soldati alleati davanti a Porta Nuova o Porta Pamphilia, detta anche Porta Gregoriana in onore di Papa Gregorio XIII", 
    "thumb_url": "http://192.168.178.80/thumb/960384040696761.jpg", 
    "height": 540
  }
}