{
  "742246885843812": {
    "width": 720, 
    "image_url": "https://scontent.xx.fbcdn.net/v/t1.0-9/s720x720/1920264_742246885843812_444181142032380103_n.jpg?oh=23e52eb7d9c92e262623424cb0ca09aa&oe=580F4996", 
    "title": "Piazzale Farini e la stazione ", 
    "date": " 1897", 
    "text": "", 
    "folder": "Piazzale Farini e la stazione", 
    "thumb_url": "http://192.168.178.80/thumb/742246885843812.jpg", 
    "height": 496
  }, 
  "1028875493847615": {
    "width": 720, 
    "image_url": "https://scontent.xx.fbcdn.net/v/t1.0-0/p180x540/12993347_1028875493847615_5170780294220417271_n.jpg?oh=7031245781d726abf157fa5babf55f52&oe=5806C117", 
    "title": "Piazzale Farini. Si ringrazia Roberto Stanghellini per la foto", 
    "date": " Anni '20 ", 
    "text": "", 
    "folder": "Piazzale Farini", 
    "thumb_url": "http://192.168.178.80/thumb/1028875493847615.jpg", 
    "height": 540
  }, 
  "962766313791867": {
    "width": 720, 
    "image_url": "https://scontent.xx.fbcdn.net/v/t1.0-9/s720x720/1483025_962766313791867_770722651832517006_n.jpg?oh=187c5fa3e43cae483c623525646a66b9&oe=57DCFD95", 
    "title": "Piazzale Luigi Farini. ", 
    "date": " 1920", 
    "text": "", 
    "folder": "Piazzale Luigi Farini", 
    "thumb_url": "http://192.168.178.80/thumb/962766313791867.jpg", 
    "height": 431
  }, 
  "840190522716114": {
    "width": 720, 
    "image_url": "https://scontent.xx.fbcdn.net/v/t1.0-0/p180x540/11008636_840190522716114_7356580458543584381_n.jpg?oh=38504cc5bc75f11590a3f913fa3c88ef&oe=57D2DB20", 
    "title": "Piazzale Farini. Si ringrazia Roberto Stanghellini per la foto", 
    "date": " Anni '20 ", 
    "text": "", 
    "folder": "Piazzale Farini", 
    "thumb_url": "http://192.168.178.80/thumb/840190522716114.jpg", 
    "height": 540
  }, 
  "643994655669036": {
    "width": 720, 
    "image_url": "https://scontent.xx.fbcdn.net/v/t1.0-0/q81/p180x540/1974977_643994655669036_1056972211_n.jpg?oh=1af8f8c51d6419e338b4fb097f4b4327&oe=57D7EE7F", 
    "title": "Piazzale Farini  ", 
    "date": " Anni '20", 
    "text": "", 
    "folder": "Piazzale Farini ", 
    "thumb_url": "http://192.168.178.80/thumb/643994655669036.jpg", 
    "height": 540
  }, 
  "1007335919334906": {
    "width": 720, 
    "image_url": "https://scontent.xx.fbcdn.net/v/t1.0-0/p180x540/12196296_1007335919334906_7818758904869515241_n.jpg?oh=e951db89ecbc82e5814788c6e2a977ed&oe=57C17891", 
    "title": "Piazzale Farini e la casa del Balilla sotto la neve. Per il gelo si ghiacci\u00f2  anche il Candiano imprigionando le navi attraccate.  Si ringrazia Roberto Stanghellini per la foto", 
    "date": " 1929", 
    "text": "", 
    "folder": "Piazzale Farini e la casa del Balilla sotto la neve Per il gelo si ghiacci\u00f2  anche il Candiano imprigionando le navi attraccate ", 
    "thumb_url": "http://192.168.178.80/thumb/1007335919334906.jpg", 
    "height": 540
  }, 
  "733713933363774": {
    "width": 720, 
    "image_url": "https://scontent.xx.fbcdn.net/v/t1.0-9/s720x720/10670092_733713933363774_8527472519637971530_n.jpg?oh=7011671561bcc46fdae53752d223400d&oe=57C743E9", 
    "title": "La Casa del Balilla in Piazzale Farini distrutta durante la Seconda Guerra Mondiale ", 
    "date": " Anni '30", 
    "text": "", 
    "folder": "La Casa del Balilla in Piazzale Farini distrutta durante la Seconda Guerra Mondiale", 
    "thumb_url": "http://192.168.178.80/thumb/733713933363774.jpg", 
    "height": 511
  }, 
  "659086557493179": {
    "width": 720, 
    "image_url": "https://scontent.xx.fbcdn.net/v/t1.0-9/s720x720/10169300_659086557493179_7633869756196491060_n.jpg?oh=cf93f770caae9b0aff1d7580ed5c3a85&oe=57D9B671", 
    "title": "Casa del Balilla, distrutta dai bombardamenti alleati agosto 1944 ", 
    "date": " 1932", 
    "text": "", 
    "folder": "Casa del Balilla, distrutta dai bombardamenti alleati agosto 1944", 
    "thumb_url": "http://192.168.178.80/thumb/659086557493179.jpg", 
    "height": 537
  }, 
  "749304281804739": {
    "width": 720, 
    "image_url": "https://scontent.xx.fbcdn.net/v/t1.0-9/q92/s720x720/10653858_749304281804739_4639941475438113602_n.jpg?oh=ccd979a44d22220922a6083c5caa6cef&oe=57C38DB8", 
    "title": "Piazzale Farini ", 
    "date": " 1935", 
    "text": "", 
    "folder": "Piazzale Farini", 
    "thumb_url": "http://192.168.178.80/thumb/749304281804739.jpg", 
    "height": 537
  }, 
  "762033497198484": {
    "width": 550, 
    "image_url": "https://scontent.xx.fbcdn.net/v/t1.0-9/10685768_762033497198484_9003129931667792934_n.jpg?oh=4636861b4c676ea4c619d5028eaeeeea&oe=57D28873", 
    "title": "Piazzale Farini e la Casa del Balilla ", 
    "date": " 1942", 
    "text": "", 
    "folder": "Piazzale Farini e la Casa del Balilla", 
    "thumb_url": "http://192.168.178.80/thumb/762033497198484.jpg", 
    "height": 348
  }, 
  "751524434916057": {
    "width": 720, 
    "image_url": "https://scontent.xx.fbcdn.net/v/t1.0-9/s720x720/10521483_751524434916057_2118804914411210892_n.jpg?oh=ccde989273e288b5fd968f8f0d4f5e14&oe=57DB5454", 
    "title": "Via Piero Maroncelli e il Piazzale della Stazione ", 
    "date": " 1942", 
    "text": "", 
    "folder": "Via Piero Maroncelli e il Piazzale della Stazione", 
    "thumb_url": "http://192.168.178.80/thumb/751524434916057.jpg", 
    "height": 439
  }, 
  "963841883684310": {
    "width": 720, 
    "image_url": "https://scontent.xx.fbcdn.net/v/t1.0-9/s720x720/12507642_963841883684310_3312877901378409452_n.jpg?oh=6d998c27f3a26735ded1491478ebe21b&oe=57DA7ADF", 
    "title": "Piazzale Farini e la stazione. ", 
    "date": " Anni '70", 
    "text": "", 
    "folder": "Piazzale Farini e la stazione", 
    "thumb_url": "http://192.168.178.80/thumb/963841883684310.jpg", 
    "height": 506
  }, 
  "630516083683560": {
    "width": 720, 
    "image_url": "https://scontent.xx.fbcdn.net/v/t1.0-9/q90/s720x720/1800327_630516083683560_376673347_n.jpg?oh=08893a56012904e985327e4d18e26850&oe=580F1774", 
    "title": "\"La casa del Balilla\" costruita durante il ventennio in zona Viale Farini distrutta dai bomabrdamenti alleati nell'estate del '44Anni : Anni '30 ", 
    "date": "", 
    "text": "", 
    "folder": "\"La casa del Balilla\" costruita durante il ventennio in zona Viale Farini distrutta dai bomabrdamenti alleati nell'estate del '44Anni : Anni '30", 
    "thumb_url": "http://192.168.178.80/thumb/630516083683560.jpg", 
    "height": 537
  }, 
  "652049534863548": {
    "width": 720, 
    "image_url": "https://scontent.xx.fbcdn.net/v/t1.0-9/q86/s720x720/1491737_652049534863548_4201694772012145547_n.jpg?oh=a659966986e59454b9d8f0c6aadc8805&oe=57D013A5", 
    "title": "Festeggiamenti per la vittoria del mondiale in Piazzale Farini ", 
    "date": " 9 luglio 2006", 
    "text": "", 
    "folder": "Festeggiamenti per la vittoria del mondiale in Piazzale Farini", 
    "thumb_url": "http://192.168.178.80/thumb/652049534863548.jpg", 
    "height": 481
  }
}