{
  "619189048149597": {
    "width": 650, 
    "image_url": "https://scontent.xx.fbcdn.net/v/t1.0-9/14810_619189048149597_519830967_n.jpg?oh=e40f3741f631dbab88d45af4fed340a4&oe=580FCE87", 
    "title": "Modellino del PalaPiano, ora quell che fu costruito sono le fondamenta del palazzo degli uffici comunali in Via Berlinguer ", 
    "date": " '80", 
    "text": "", 
    "folder": "Modellino del PalaPiano, ora quell che fu costruito sono le fondamenta del palazzo degli uffici comunali in Via Berlinguer", 
    "thumb_url": "http://192.168.178.80/thumb/619189048149597.jpg", 
    "height": 400
  }
}