{
  "985337621534736": {
    "width": 720, 
    "image_url": "https://scontent.xx.fbcdn.net/v/t1.0-0/p180x540/12743539_985337621534736_4875640113510791341_n.jpg?oh=9f13bc5e52fe4b9298c38c0e4e38131d&oe=57C273B8", 
    "title": "Porta Adriana, detta anche Porta Aurea Nuova perch\u00e9 eretta nel 1583 con i materiali dell'antica Porta Aurea. Si ringrazia Roberto Stanghellini per la foto", 
    "date": " Primi anni del '900 ", 
    "text": "", 
    "folder": "Porta Adriana, detta anche Porta Aurea Nuova perch\u00e9 eretta nel 1583 con i materiali dell'antica Porta Aurea", 
    "thumb_url": "http://192.168.178.80/thumb/985337621534736.jpg", 
    "height": 540
  }, 
  "923084724426693": {
    "width": 417, 
    "image_url": "https://scontent.xx.fbcdn.net/v/t1.0-9/12046863_923084724426693_6731678645534976501_n.jpg?oh=10dd7a3c7538609f84db855dc6e7bc02&oe=57C4FF71", 
    "title": "Porta Adriana. ", 
    "date": " Primi anni del '900", 
    "text": "", 
    "folder": "Porta Adriana", 
    "thumb_url": "http://192.168.178.80/thumb/923084724426693.jpg", 
    "height": 278
  }, 
  "885423924859440": {
    "width": 700, 
    "image_url": "https://scontent.xx.fbcdn.net/v/t1.0-9/s720x720/11700899_885423924859440_3633411728409193300_n.jpg?oh=14287d7fd599071dd17b461a39128535&oe=57C44A4E", 
    "title": "Porta Saffi ora Porta Adriana. ", 
    "date": " Primi anni del '900", 
    "text": "", 
    "folder": "Porta Saffi ora Porta Adriana", 
    "thumb_url": "http://192.168.178.80/thumb/885423924859440.jpg", 
    "height": 720
  }, 
  "967136263354872": {
    "width": 720, 
    "image_url": "https://scontent.xx.fbcdn.net/v/t1.0-9/s720x720/12541119_967136263354872_4154731926584873083_n.jpg?oh=19a2dc2012fd044b60050f58a8611ff9&oe=580C43AD", 
    "title": "Porta Adriana. ", 
    "date": " Anni '30", 
    "text": "", 
    "folder": "Porta Adriana", 
    "thumb_url": "http://192.168.178.80/thumb/967136263354872.jpg", 
    "height": 464
  }, 
  "975591382509360": {
    "width": 720, 
    "image_url": "https://scontent.xx.fbcdn.net/v/t1.0-9/s720x720/10271532_975591382509360_3730648244071637222_n.jpg?oh=e5a015bec904f53698e0cb6cc930d80b&oe=57D187EF", 
    "title": "Porta Adriana. ", 
    "date": " Anni '60", 
    "text": "", 
    "folder": "Porta Adriana", 
    "thumb_url": "http://192.168.178.80/thumb/975591382509360.jpg", 
    "height": 497
  }, 
  "1046542508747580": {
    "width": 477, 
    "image_url": "https://scontent.xx.fbcdn.net/v/t1.0-9/13240167_1046542508747580_6515763934472406620_n.jpg?oh=592f0b78dc51109fa520bef231a9c392&oe=57D7D4FA", 
    "title": "Porta Adriana. ", 
    "date": " Anni '70", 
    "text": "", 
    "folder": "Porta Adriana", 
    "thumb_url": "http://192.168.178.80/thumb/1046542508747580.jpg", 
    "height": 331
  }, 
  "878491358886030": {
    "width": 720, 
    "image_url": "https://scontent.xx.fbcdn.net/v/t1.0-9/s720x720/11150746_878491358886030_1242467974629569959_n.jpg?oh=8c9f57cb640dbf73d761469e02a84231&oe=57D79E4C", 
    "title": "Porta Adriana. ", 
    "date": " Anni '70", 
    "text": "", 
    "folder": "Porta Adriana", 
    "thumb_url": "http://192.168.178.80/thumb/878491358886030.jpg", 
    "height": 499
  }, 
  "767390583329442": {
    "width": 412, 
    "image_url": "https://scontent.xx.fbcdn.net/v/t1.0-9/1510588_767390583329442_8355374362517044028_n.jpg?oh=8aab778171908990322ae08744055372&oe=57D87581", 
    "title": "Porta Adriana ", 
    "date": " Anni '80", 
    "text": "", 
    "folder": "Porta Adriana", 
    "thumb_url": "http://192.168.178.80/thumb/767390583329442.jpg", 
    "height": 297
  }, 
  "952078984860600": {
    "width": 516, 
    "image_url": "https://scontent.xx.fbcdn.net/v/t1.0-9/s720x720/12341431_952078984860600_7257641209523526116_n.jpg?oh=9c3bc11ad07f277fa388a07243fb42ff&oe=57CCA9DD", 
    "title": "Porta Adriana ornata con luminarie natalizie. ", 
    "date": " Anni '90", 
    "text": "", 
    "folder": "Porta Adriana ornata con luminarie natalizie", 
    "thumb_url": "http://192.168.178.80/thumb/952078984860600.jpg", 
    "height": 720
  }
}