{
  "995181363883695": {
    "width": 720, 
    "image_url": "https://scontent.xx.fbcdn.net/v/t1.0-0/p180x540/12794637_995181363883695_461174359337818951_n.jpg?oh=f69baddb991077e4c8485752ac88ea57&oe=57CE9B84", 
    "title": "Via Port'Aurea prima della pavimentazione . A sinistra il muro del convento dei Cappuccini e a destra il cortile del ricreatorio. Si ringrazia Roberto Stanghellini per la foto", 
    "date": " 1934", 
    "text": "", 
    "folder": "Via Port'Aurea prima della pavimentazione  A sinistra il muro del convento dei Cappuccini e a destra il cortile del ricreatorio", 
    "thumb_url": "http://192.168.178.80/thumb/995181363883695.jpg", 
    "height": 540
  }, 
  "968176703250828": {
    "width": 720, 
    "image_url": "https://scontent.xx.fbcdn.net/v/t1.0-0/p180x540/12552642_968176703250828_4784045835132599016_n.jpg?oh=e167066441049c44709edcf64e29e659&oe=57C30E70", 
    "title": "Via Port'Aurea con il fondo stradale in completo abbandono.A sinistra il carcere e a destra gli edifici dell'allora distretto militare. Si ringrazia Roberto Stanghellini per la foto", 
    "date": " 1934", 
    "text": "", 
    "folder": "Via Port'Aurea con il fondo stradale in completo abbandonoA sinistra il carcere e a destra gli edifici dell'allora distretto militare", 
    "thumb_url": "http://192.168.178.80/thumb/968176703250828.jpg", 
    "height": 540
  }, 
  "610853298983172": {
    "width": 525, 
    "image_url": "https://scontent.xx.fbcdn.net/v/t1.0-9/1546219_610853298983172_428925405_n.jpg?oh=ad5ea93c75cce8f010911f2dd1367aa1&oe=57C57D3B", 
    "title": "Porta Aurea Fonte : comune.ra.it", 
    "date": " Litografia", 
    "text": "", 
    "folder": "Porta Aurea", 
    "thumb_url": "http://192.168.178.80/thumb/610853298983172.jpg", 
    "height": 283
  }
}