{
  "728046470597187": {
    "width": 720, 
    "image_url": "https://scontent.xx.fbcdn.net/v/l/t1.0-9/q92/s720x720/10450142_728046470597187_4867634127930604807_n.jpg?oh=2ce78cd6a96be368fbae84ba46e004c7&oe=5807C53F", 
    "title": "Via Scuole Pubbliche ", 
    "date": " 1938", 
    "text": "", 
    "folder": "Via Scuole Pubbliche", 
    "thumb_url": "http://192.168.178.80/thumb/728046470597187.jpg", 
    "height": 537
  }
}