{
  "964170223651476": {
    "width": 720, 
    "image_url": "https://scontent.xx.fbcdn.net/v/t1.0-9/q85/s720x720/12510428_964170223651476_4634876452934783224_n.jpg?oh=e1cc2d34e4063da38545f9e7e7770e8d&oe=57DA85EC", 
    "title": "Via Luca Longhi detta \"e ghet\" per la presenza di molti abitanti ebrei nel periodo dello Stato Pontificio. ", 
    "date": " Anni '30", 
    "text": "", 
    "folder": "Via Luca Longhi detta \"e ghet\" per la presenza di molti abitanti ebrei nel periodo dello Stato Pontificio", 
    "thumb_url": "http://192.168.178.80/thumb/964170223651476.jpg", 
    "height": 489
  }
}