{
  "743218935746607": {
    "width": 720, 
    "image_url": "https://scontent.xx.fbcdn.net/v/t1.0-9/q89/s720x720/10665751_743218935746607_6199382157197092125_n.jpg?oh=3a904071f4d692b55def28c03323b101&oe=57CF268F", 
    "title": "Via Andrea Agnello ", 
    "date": " 1940", 
    "text": "", 
    "folder": "Via Andrea Agnello", 
    "thumb_url": "http://192.168.178.80/thumb/743218935746607.jpg", 
    "height": 497
  }
}