{
  "645657242169444": {
    "width": 720, 
    "image_url": "https://scontent.xx.fbcdn.net/v/t1.0-9/p720x720/10154356_645657242169444_688415064_n.jpg?oh=862382834a3d1474f1f303b0cf7de492&oe=57C81558", 
    "title": "La zona della Rocca Brancaleone e della stazione vista dall'alto Si ringrazia Lu Fe per la foto", 
    "date": " Anni '20", 
    "text": "", 
    "folder": "La zona della Rocca Brancaleone e della stazione vista dall'alto", 
    "thumb_url": "http://192.168.178.80/thumb/645657242169444.jpg", 
    "height": 720
  }, 
  "642510982484070": {
    "width": 720, 
    "image_url": "https://scontent.xx.fbcdn.net/v/t1.0-9/q91/s720x720/1982061_642510982484070_249046994_n.jpg?oh=78f2e7c92f7938cbd666ec398c5a71ea&oe=57DAA30C", 
    "title": "Interno della Rocca Brancaleone ", 
    "date": " 1921", 
    "text": "", 
    "folder": "Interno della Rocca Brancaleone", 
    "thumb_url": "http://192.168.178.80/thumb/642510982484070.jpg", 
    "height": 537
  }, 
  "1048059518595879": {
    "width": 720, 
    "image_url": "https://scontent.xx.fbcdn.net/v/t1.0-9/s720x720/13254087_1048059518595879_451029993700679558_n.jpg?oh=e8665512e2f413f5ae002de2c61682ee&oe=57C6AEA6", 
    "title": "La Rocca Brancaleone. ", 
    "date": " Anni '60", 
    "text": "", 
    "folder": "La Rocca Brancaleone", 
    "thumb_url": "http://192.168.178.80/thumb/1048059518595879.jpg", 
    "height": 510
  }, 
  "1027014114033753": {
    "width": 720, 
    "image_url": "https://scontent.xx.fbcdn.net/v/t1.0-9/s720x720/13012646_1027014114033753_102931681899727425_n.jpg?oh=ed859c105ea77dfd230159ae4dba9066&oe=57D69A61", 
    "title": "La Rocca Brancaleone. Si ringrazia Vittorio Chiarelli per la foto", 
    "date": " Anni '70 ", 
    "text": "", 
    "folder": "La Rocca Brancaleone", 
    "thumb_url": "http://192.168.178.80/thumb/1027014114033753.jpg", 
    "height": 528
  }, 
  "969311916470640": {
    "width": 720, 
    "image_url": "https://scontent.xx.fbcdn.net/v/t1.0-9/s720x720/12524089_969311916470640_3131783559199352109_n.jpg?oh=283d03f48950bbc40a253914aed9b195&oe=57DDEF16", 
    "title": "La Rocca Brancaleone. ", 
    "date": " 1971", 
    "text": "", 
    "folder": "La Rocca Brancaleone", 
    "thumb_url": "http://192.168.178.80/thumb/969311916470640.jpg", 
    "height": 501
  }, 
  "993001277435037": {
    "width": 720, 
    "image_url": "https://scontent.xx.fbcdn.net/t31.0-8/s720x720/12778710_993001277435037_7251401689216331995_o.jpg", 
    "title": "Il Cinema alla Rocca Brancaleone. ", 
    "date": " Anni '80", 
    "text": "", 
    "folder": "Il Cinema alla Rocca Brancaleone", 
    "thumb_url": "http://192.168.178.80/thumb/993001277435037.jpg", 
    "height": 492
  }, 
  "629667113768457": {
    "width": 670, 
    "image_url": "https://scontent.xx.fbcdn.net/v/t1.0-9/1947574_629667113768457_1207706057_n.jpg?oh=72c51a3e3452a233b106695f33799d11&oe=57C2F385", 
    "title": "Rocca Brancaleone. Pubblico questa bellissima foto per denunciare il vergognoso stato di degrado in cui si trova la struttura.Fonte : Biserni ", 
    "date": "", 
    "text": "", 
    "folder": "Rocca Brancaleone Pubblico questa bellissima foto per denunciare il vergognoso stato di degrado in cui si trova la strutturaFonte : Biserni", 
    "thumb_url": "http://192.168.178.80/thumb/629667113768457.jpg", 
    "height": 446
  }
}