{
  "921473274587838": {
    "width": 720, 
    "image_url": "https://scontent.xx.fbcdn.net/v/t1.0-9/s720x720/12065637_921473274587838_573369439540926329_n.jpg?oh=21da58eeb6f03638756a2bc3f7abb5f5&oe=57CF6A32", 
    "title": "Via Giuseppe Pasolini. ", 
    "date": " 1940", 
    "text": "", 
    "folder": "Via Giuseppe Pasolini", 
    "thumb_url": "http://192.168.178.80/thumb/921473274587838.jpg", 
    "height": 537
  }, 
  "989914637743701": {
    "width": 540, 
    "image_url": "https://scontent.xx.fbcdn.net/v/t1.0-9/s720x720/12745777_989914637743701_3685553985237922335_n.jpg?oh=224cea2db52a5eaf42d2fd352fd6d30b&oe=57CA62AC", 
    "title": "La chiesa scomparsa di San Paterniano nell'allora strada di San Paterniano che corrisponde all'attuale Via Pasolini. Si ringrazia Roberto Stanghellini per la foto", 
    "date": " Fine '800 ", 
    "text": "", 
    "folder": "La chiesa scomparsa di San Paterniano nell'allora strada di San Paterniano che corrisponde all'attuale Via Pasolini", 
    "thumb_url": "http://192.168.178.80/thumb/989914637743701.jpg", 
    "height": 720
  }
}