{
  "624311864303982": {
    "width": 720, 
    "image_url": "https://scontent.xx.fbcdn.net/v/t1.0-0/p180x540/1896803_624311864303982_466421033_n.jpg?oh=31084e041aefe5738afa48305844280f&oe=57CB498F", 
    "title": "Antica sede Casa Matha demolita nel 1893 per far spazio all'attuale Piazza Andrea Costa (Piazza del Mercato Coperto)  ", 
    "date": " 1890", 
    "text": "", 
    "folder": "Antica sede Casa Matha demolita nel 1893 per far spazio all'attuale Piazza Andrea Costa (Piazza del Mercato Coperto) ", 
    "thumb_url": "http://192.168.178.80/thumb/624311864303982.jpg", 
    "height": 540
  }, 
  "632669840134851": {
    "width": 720, 
    "image_url": "https://scontent.xx.fbcdn.net/v/t1.0-0/p180x540/1970553_632669840134851_693115951_n.jpg?oh=dd2a38f2a3043cdb9157e9e9a4d87515&oe=57D2D1DD", 
    "title": "Piazza montegrappa ora andrea costa area ottenuta dalla demolizione della vecchia sede della casa matha e sottostante pescheria. In luogo alle case abbattute sorrger\u00e0 nel 1901 la nuova sede della casa Matha, in pratica quella attuale ", 
    "date": " 1893", 
    "text": "", 
    "folder": "Piazza montegrappa ora andrea costa area ottenuta dalla demolizione della vecchia sede della casa matha e sottostante pescheria In luogo alle case abbattute sorrger\u00e0 nel 1901 la nuova sede della casa Matha, in pratica quella attuale", 
    "thumb_url": "http://192.168.178.80/thumb/632669840134851.jpg", 
    "height": 540
  }, 
  "641621382573030": {
    "width": 720, 
    "image_url": "https://scontent.xx.fbcdn.net/v/t1.0-9/q87/s720x720/971611_641621382573030_1424406052_n.jpg?oh=942f70c21d5f8eb0257a07ebb166d296&oe=57CA9BFE", 
    "title": "Mercato Coperto ", 
    "date": " 1900", 
    "text": "", 
    "folder": "Mercato Coperto", 
    "thumb_url": "http://192.168.178.80/thumb/641621382573030.jpg", 
    "height": 537
  }, 
  "1039531349448696": {
    "width": 480, 
    "image_url": "https://scontent.xx.fbcdn.net/v/t1.0-9/s720x720/13102745_1039531349448696_2421923326678741758_n.jpg?oh=6e7c22ad081466716da416af28f5e8fc&oe=5807EFD1", 
    "title": "Piazza Andrea Costa. Si ringrazia Roberto Stanghellini per la foto", 
    "date": " 1912", 
    "text": "", 
    "folder": "Piazza Andrea Costa", 
    "thumb_url": "http://192.168.178.80/thumb/1039531349448696.jpg", 
    "height": 720
  }, 
  "646164928785342": {
    "width": 488, 
    "image_url": "https://scontent.xx.fbcdn.net/v/t1.0-9/q85/s720x720/1619271_646164928785342_1161025055_n.jpg?oh=0f32c514f11eb2336457ee43c5521640&oe=57D48DB7", 
    "title": "Piazza Andrea Costa Si ringrazia Franco Darchini per la foto", 
    "date": " 1912", 
    "text": "", 
    "folder": "Piazza Andrea Costa", 
    "thumb_url": "http://192.168.178.80/thumb/646164928785342.jpg", 
    "height": 720
  }, 
  "891392814262551": {
    "width": 720, 
    "image_url": "https://scontent.xx.fbcdn.net/v/t1.0-9/s720x720/11143622_891392814262551_8451901019447885424_n.jpg?oh=36b7624bfa36b434d0749d1d131eafd9&oe=57D01A21", 
    "title": "Il Mercato Coperto. ", 
    "date": " 1919", 
    "text": "", 
    "folder": "Il Mercato Coperto", 
    "thumb_url": "http://192.168.178.80/thumb/891392814262551.jpg", 
    "height": 475
  }, 
  "694158783985956": {
    "width": 640, 
    "image_url": "https://scontent.xx.fbcdn.net/v/t1.0-9/10485288_694158783985956_1711248868132132870_n.jpg?oh=0990fb19ccdfbc4a7c8febd061f77a92&oe=57D231DD", 
    "title": "L'interno del Mercato Coperto ", 
    "date": " Anni '20", 
    "text": "", 
    "folder": "L'interno del Mercato Coperto", 
    "thumb_url": "http://192.168.178.80/thumb/694158783985956.jpg", 
    "height": 478
  }, 
  "928896090512223": {
    "width": 720, 
    "image_url": "https://scontent.xx.fbcdn.net/v/t1.0-0/p180x540/12122871_928896090512223_837251903425894856_n.jpg?oh=5e0855a78bd9da8c0be093617237e24e&oe=57D07DEC", 
    "title": "Il Mercato Coperto a lavori ultimati. Si ringrazia Roberto Stanghellini per la foto", 
    "date": " 1921", 
    "text": "", 
    "folder": "Il Mercato Coperto a lavori ultimati", 
    "thumb_url": "http://192.168.178.80/thumb/928896090512223.jpg", 
    "height": 540
  }, 
  "681943401874161": {
    "width": 640, 
    "image_url": "https://scontent.xx.fbcdn.net/v/t1.0-9/10428088_681943401874161_6064930512041448491_n.jpg?oh=0173f45085bb33930e3f1d155f7f8fc0&oe=57C94732", 
    "title": "Interno del Mercato Coperto ", 
    "date": " 1921", 
    "text": "", 
    "folder": "Interno del Mercato Coperto", 
    "thumb_url": "http://192.168.178.80/thumb/681943401874161.jpg", 
    "height": 478
  }, 
  "1040316489370182": {
    "width": 429, 
    "image_url": "https://scontent.xx.fbcdn.net/v/t1.0-9/13151493_1040316489370182_297294925366635089_n.jpg?oh=5f08767529208f4f96b72136e7baaca0&oe=58097D7B", 
    "title": "L' entrata del Mercato Coperto. ", 
    "date": " Anni '30", 
    "text": "", 
    "folder": "L' entrata del Mercato Coperto", 
    "thumb_url": "http://192.168.178.80/thumb/1040316489370182.jpg", 
    "height": 515
  }, 
  "924768824258283": {
    "width": 477, 
    "image_url": "https://scontent.xx.fbcdn.net/v/t1.0-9/s720x720/12122467_924768824258283_2093061617389891584_n.jpg?oh=7d2218f968f2e35f990c316bc9339050&oe=57CD5748", 
    "title": "Piazza Andrea Costa e il Mercato Coperto. ", 
    "date": " Anni '70", 
    "text": "", 
    "folder": "Piazza Andrea Costa e il Mercato Coperto", 
    "thumb_url": "http://192.168.178.80/thumb/924768824258283.jpg", 
    "height": 720
  }, 
  "786260621442438": {
    "width": 720, 
    "image_url": "https://scontent.xx.fbcdn.net/v/t1.0-9/s720x720/1508560_786260621442438_4160440379507654306_n.jpg?oh=187a33c4ee8a30d2b6123e1e1d59499d&oe=580E4B69", 
    "title": "Piccioni in Piazza Andrea Costa. ", 
    "date": " Anni '70", 
    "text": "", 
    "folder": "Piccioni in Piazza Andrea Costa", 
    "thumb_url": "http://192.168.178.80/thumb/786260621442438.jpg", 
    "height": 470
  }, 
  "1023471717721326": {
    "width": 720, 
    "image_url": "https://scontent.xx.fbcdn.net/v/t1.0-9/s720x720/12961569_1023471717721326_8451669314483493785_n.jpg?oh=e8f4c9108aabfb3e71270e02ecbce0af&oe=57DB23D6", 
    "title": "Piazza Andrea Costa. Si ringrazia Viviana Masotti per la foto", 
    "date": " Anni '80 ", 
    "text": "", 
    "folder": "Piazza Andrea Costa", 
    "thumb_url": "http://192.168.178.80/thumb/1023471717721326.jpg", 
    "height": 470
  }, 
  "780591578676009": {
    "width": 720, 
    "image_url": "https://scontent.xx.fbcdn.net/v/t1.0-9/s720x720/10359405_780591578676009_4692355212383882576_n.jpg?oh=522f22bd927f14ffabbecfccc7f5d6f4&oe=57D86BB3", 
    "title": "L'interno del Mercato Coperto ", 
    "date": " Anni '80", 
    "text": "", 
    "folder": "L'interno del Mercato Coperto", 
    "thumb_url": "http://192.168.178.80/thumb/780591578676009.jpg", 
    "height": 480
  }, 
  "775685269166640": {
    "width": 720, 
    "image_url": "https://scontent.xx.fbcdn.net/v/t1.0-9/s720x720/10846027_775685269166640_5981703609276662298_n.jpg?oh=cec056586ebcb9dbca4b9681cfd51681&oe=57DA2CC8", 
    "title": "Piazza Andrea Costa e Via IV Novembre ", 
    "date": " Anni '80", 
    "text": "", 
    "folder": "Piazza Andrea Costa e Via IV Novembre", 
    "thumb_url": "http://192.168.178.80/thumb/775685269166640.jpg", 
    "height": 479
  }, 
  "774768972591603": {
    "width": 498, 
    "image_url": "https://scontent.xx.fbcdn.net/v/t1.0-9/s720x720/10339705_774768972591603_5794713050874945113_n.jpg?oh=073a875cf512db3041efc6126e4eb755&oe=57C94AD1", 
    "title": "Piazza Andrea Costa ", 
    "date": " Anni '80", 
    "text": "", 
    "folder": "Piazza Andrea Costa", 
    "thumb_url": "http://192.168.178.80/thumb/774768972591603.jpg", 
    "height": 720
  }, 
  "1036793566389141": {
    "width": 720, 
    "image_url": "https://scontent.xx.fbcdn.net/v/t1.0-9/s720x720/13100935_1036793566389141_6982356017559529645_n.jpg?oh=4a3022ae162ac601cae14b4b3cd9ff01&oe=57DCDE41", 
    "title": "I mosaici della Basilica di San Michele in Africisco, oggi sconsacrata, sita in piazza Andrea Costa, conservati al Bode Museum di Berlino. ", 
    "date": " 2015", 
    "text": "", 
    "folder": "I mosaici della Basilica di San Michele in Africisco, oggi sconsacrata, sita in piazza Andrea Costa, conservati al Bode Museum di Berlino", 
    "thumb_url": "http://192.168.178.80/thumb/1036793566389141.jpg", 
    "height": 548
  }
}