{
  "746925162042651": {
    "width": 720, 
    "image_url": "https://scontent.xx.fbcdn.net/v/t1.0-9/q81/s720x720/10710740_746925162042651_7205060396685723526_n.jpg?oh=b8bc8d82a3d6efde8ebfcfa8ca885c06&oe=5808952D", 
    "title": "La zona di Via Anastagi  dopo i bombardamenti della Seconda Guerra Mondiale. La via su cui cammina l'uomo in nero \u00e8 Via Girolamo Rossi  ", 
    "date": " 1945", 
    "text": "", 
    "folder": "La zona di Via Anastagi  dopo i bombardamenti della Seconda Guerra Mondiale La via su cui cammina l'uomo in nero \u00e8 Via Girolamo Rossi ", 
    "thumb_url": "http://192.168.178.80/thumb/746925162042651.jpg", 
    "height": 494
  }
}